<?xml version="1.0" standalone="no"?>
<!DOCTYPE svg PUBLIC "-//W3C//DTD SVG 1.1//EN" "http://www.w3.org/Graphics/SVG/1.1/DTD/svg11.dtd">
<svg xmlns="http://www.w3.org/2000/svg">
<metadata>Copyright (C) 2016 by original authors @ fontello.com</metadata>
<defs>
<font id="jumaalmajid" horiz-adv-x="1000" >
<font-face font-family="jumaalmajid" font-weight="400" font-stretch="normal" units-per-em="1000" ascent="850" descent="-150" />
<missing-glyph horiz-adv-x="1000" />
<glyph glyph-name="right-open-big" unicode="&#xe800;" d="M13-20l358 370-358 372q-26 26 0 48 26 26 48 0l392-394q24-26 0-50l-392-394q-22-26-48 0-26 22 0 48z" horiz-adv-x="465" />

<glyph glyph-name="left-open-big" unicode="&#xe801;" d="M452-20q26-26 0-48-26-26-48 0l-392 394q-24 24 0 50l392 394q22 26 48 0 26-22 0-48l-358-372z" horiz-adv-x="465" />

<glyph glyph-name="right-open-mini" unicode="&#xe802;" d="M13 180l158 170-158 172q-26 26 0 48 26 26 48 0l192-194q24-26 0-50l-192-194q-22-26-48 0-26 22 0 48z" horiz-adv-x="265" />

<glyph glyph-name="down-open-mini" unicode="&#xe803;" d="M405 470q22 26 48 0 26-22 0-48l-196-192q-22-22-48 0l-196 192q-26 26 0 48 24 24 50 0l170-156z" horiz-adv-x="466" />

<glyph glyph-name="letter" unicode="&#xe80c;" d="M451 850l0 0c40-30 75-66 119-90 65-24 142-6 202-40 38-51 24-121 34-181 33-32 66-64 96-98l0-591-902 0 0 592c31 33 64 65 96 97 10 60-4 131 34 181 61 34 138 16 203 40 43 24 79 60 118 90m-12-71l-24-6c-6-7-16-23-22-31 39 0 78 0 116 0-16 11-55 81-70 37m-292-90c1-109 2-217 0-327 35-31 68-64 107-90 77-18 156-7 234-10 53 3 108-6 159 10 40 28 73 62 108 95-1 107-1 215 0 322-202 15-406 15-608 0m-106-293c-1-166-2-332 1-498 93 82 184 165 278 247-92 85-185 168-279 251m542-251c93-82 185-165 278-247 3 166 1 332 1 498-94-83-188-166-279-251m-275 67c44-38 94-76 156-64 54-6 90 36 129 64-95 4-190 4-285 0m-11-147c-67-56-129-116-194-173 232-1 464-1 697 0-84 68-155 156-250 209-84 6-186 29-253-36z m-81 529c157 1 314 1 470 0l2-43c-158-1-316-1-473 0l1 43z m0-109c157 0 314 0 470 0 0-12-1-36-2-48-155-1-310-1-466 0 0 12-1 36-2 48z m0-113c157 1 313 1 470 0l-1-44c-156-1-313-1-469 0l0 44z" horiz-adv-x="902" />

<glyph glyph-name="location-1" unicode="&#xe80d;" d="M295 850l66 0c108-40 184-139 160-258-16-74 83-40 125-60 11-52 12-105 19-157 106-9 212 3 318-8 10-142 18-286-4-427-32-86-134-74-208-77-257 4-514-1-771 4l0 672c47 13 156-29 135 55-26 119 53 216 160 256m6-73c-66-11-95-74-120-128 38-82 83-162 145-230 54 70 129 136 135 231 4 82-83 144-160 127m-238-301c2-181 2-361 1-541 176-4 352-6 528 2-2 179-3 358 0 538-45 0-90 1-135 3-36-49-74-99-120-141-64 16-95 94-139 140-45-1-90-1-135-1m593-171c0-124-1-248 0-372 85 8 193-26 264 28 15 113 3 228 9 342-91 0-182 5-273 2z m-392 431c121 85 247-111 121-185-113-83-236 114-121 185m60-39c-69-17-41-132 39-96 14 50 10 87-39 96z m-118-368c81 22 63-65 59-116-94-31-59 60-59 116z m195 2c79 20 42-72 54-117-81-34-81 67-54 117z m332-102c54-8 152 27 121-64-58 3-153-32-121 64z m-530-127c92 38 56-61 64-115-91-28-62 58-64 115z m187 5c93 36 93-160-1-121 3 41 3 81 1 121z m343-26c54-8 151 26 122-66-58 5-153-30-122 66z" horiz-adv-x="1000" />

<glyph glyph-name="phone-1" unicode="&#xe80e;" d="M588 850l389 0c223-39 467-119 588-327l0-166c-44-99-144-134-243-150 22-137-10-277-133-357l-805 0c-150 57-160 222-139 357-103 13-196 60-245 156l0 138c104 228 364 303 588 349m-501-353c0-32 0-96 0-128 53-39 112-68 177-81 106 191 286 366 519 361 228 12 405-168 505-354 69 5 134 29 190 69 0 34 0 102 0 136-183 234-505 277-784 261-225-7-464-79-607-264m291-559c262 3 526-23 786 9 177 163-8 445-166 558-334 226-817-220-620-567z m183 345c2 237 337 272 444 85 0-32-1-96-1-128-101-175-393-167-443 43m106 8c11-157 285-90 253 65-72 66-311 62-253-65z" horiz-adv-x="1565" />

<glyph glyph-name="twitter-1" unicode="&#xf302;" d="M290 152l73 0c45 0 80-35 80-79 0-45-35-80-80-80l-79 0c-76 4-148 34-199 85-55 52-85 124-85 202l0 348c0 44 35 79 80 79 44 0 79-35 79-79l0-116 204 0c45 0 80-35 80-80 0-44-35-79-80-79l-204 0 0-73c0-70 55-123 131-128z" horiz-adv-x="443" />

<glyph glyph-name="flickr" unicode="&#xf303;" d="M196 150q-80 0-138 59t-58 141q0 84 57 142t139 58 139-58 57-142q0-82-58-141t-138-59z m508 0q-80 0-138 59t-58 141q0 84 57 142t139 58 139-58 57-142q0-82-58-141t-138-59z" horiz-adv-x="900" />

<glyph glyph-name="twitter" unicode="&#xf309;" d="M920 636q-36-54-94-98l0-24q0-130-60-250t-186-203-290-83q-160 0-290 84 14-2 46-2 132 0 234 80-62 2-110 38t-66 94q10-4 34-4 26 0 50 6-66 14-108 66t-42 120l0 2q36-20 84-24-84 58-84 158 0 48 26 94 154-188 390-196-6 18-6 42 0 78 55 133t135 55q82 0 136-58 60 12 120 44-20-66-82-104 56 8 108 30z" horiz-adv-x="920" />

<glyph glyph-name="facebook" unicode="&#xf30c;" d="M500 644l-142 0q-14 0-25-15t-11-37l0-102 178 0 0-148-178 0 0-442-170 0 0 442-152 0 0 148 152 0 0 86q0 94 59 159t147 65l142 0 0-156z" horiz-adv-x="500" />

<glyph glyph-name="gplus" unicode="&#xf30f;" d="M48 572q0 58 25 102t56 65 69 34 56 15 26 2l230 0 0-4q0-22-78-36-28 0-38-6 40-20 54-56t14-96q0-102-68-158-38-38-38-54 0-18 50-64 104-90 104-178 0-140-116-194-68-34-150-34l-4 0-4 2q-2-2-4-2-24 0-54 5t-75 21-74 57-29 103q0 60 32 101t83 57 88 22 71 6l2 0q-16 22-24 47t-8 39l2 14-14 0q-64 0-110 30-74 44-74 160z m370-452q-4 52-43 84t-103 32l-16 0q-64-2-114-46-46-42-42-94t53-80 119-24q68 4 109 40t37 88z m-60 500q-30 108-122 108-12 0-20-2-40-12-58-62-16-50-2-106 14-52 47-85t71-33q12 0 18 2 42 12 63 65t3 113z m388-174l150 0 0-94-150 0 0-150-94 0 0 150-150 0 0 94 150 0 0 150 94 0 0-150z" horiz-adv-x="896" />

<glyph glyph-name="pinterest" unicode="&#xf312;" d="M320 190q-26-130-58-211t-96-129q-6 74-7 120t11 110 22 104 26 99 24 99q-24 52-19 116t48 106 99 20q40-16 44-59t-13-95-32-103-4-90 63-49q68-14 121 38t74 131 11 163-54 128q-62 64-151 70t-163-33-120-117-32-170q4-22 22-52t21-47-17-67q-146 34-140 230 4 138 105 234t233 112q164 18 290-57t144-219q26-176-66-317t-252-129q-22 2-42 9t-30 13-31 21-31 21z" horiz-adv-x="778" />

<glyph glyph-name="linkedin" unicode="&#xf318;" d="M204 698q0-40-29-68t-75-28q-44 0-72 28t-28 68q0 42 28 69t74 27 73-27 29-69z m-198-790l0 618 192 0 0-618-192 0z m306 420q0 86-4 198l166 0 10-86 4 0q60 100 190 100 100 0 161-67t61-199l0-366-192 0 0 342q0 134-98 134-70 0-98-72-6-12-6-48l0-356-194 0 0 420z" horiz-adv-x="900" />

<glyph glyph-name="instagram" unicode="&#xf32d;" d="M690 350q0 26-6 50l176 0 0-344q0-56-39-96t-95-40l-592 0q-56 0-95 40t-39 96l0 344 174 0q-4-32-4-50 0-106 76-183t184-77q106 0 183 77t77 183z m36 430q56 0 95-39t39-95l0-146-218 0q-78 110-212 110-138 0-212-110l-218 0 0 146q0 56 39 95t95 39l592 0z m64-166l0 72q0 24-24 24l-72 0q-24 0-24-24l0-72q0-8 7-16t17-8l72 0q24 0 24 24z m-200-264q0-66-47-113t-113-47-113 47-47 113q0 68 47 114t113 46 113-46 47-114z" horiz-adv-x="860" />
</font>
</defs>
</svg>